11.13 Blood Pressure | UK Biobank Phenotyping
…
#Here are the results for single type:
bp_single %>% 
  group_by(code, term_description, bp_type) %>% 
  summarize(n=n(), mean=round(mean(value, 1))) %>% 
  arrange(bp_type, desc(n)) 

## # A tibble: 33 x 5
## # Groups:   code, term_description [33]
##    code  term_description                              bp_type           n  mean
##    <chr> <chr>                                         <chr>         <int> <dbl>
##  1 246A. O/E - Diastolic BP reading                    Diastolic_b~ 3.13e6    80
##  2 XaJ2F Sitting diastolic blood pressure              Diastolic_b~ 3.78e3    80
##  3 XaKFw Average home diastolic blood pressure         Diastolic_b~ 3.54e3    79
##  4 XaF4b Average 24 hour diastolic blood pressure      Diastolic_b~ 1.72e3    79
##  5 XaF4a Average day interval diastolic blood pressure Diastolic_b~ 8.73e2    83
##  6 246R. Sitting diastolic blood pressure              Diastolic_b~ 5.49e2    82
##  7 XaJ2H Lying diastolic blood pressure                Diastolic_b~ 4.88e2    80
##  8 246c. Average home diastolic blood pressure         Diastolic_b~ 1.08e2    82
##  9 XaF4S Average diastolic blood pressure              Diastolic_b~ 8.5 e1    81
## 10 246V. Average 24 hour diastolic blood pressure      Diastolic_b~ 1.1 e1    91
## # ... with 23 more rows
…
