8.2 Phenotype control exclusion events using UKB assessment center data | UK Biobank Phenotyping
…
saveRDS(cardio_control_exclusion_events,"generated_data/cardio_control_exclusion_events_ukb.RDS")

8.2.2 Cerebrovascular control exclusion events

Define patterns

exclude_ctrl_cereb_icd10 <- "G45|G46|I65|I66|I67|I68|I69"
exclude_ctrl_cereb_self <- "1082"

cerebro_control_exclusion_events <- 
  get_phenotype_tab(icd10_patterns_any = exclude_ctrl_cereb_icd10,
                    selfrep_patterns = exclude_ctrl_cereb_self,event_tab = event_tab,firstoccur = F)
cerebro_control_exclusion_events

## # A tibble: 23,271 × 2
##      f.eid event_dt  
##      <int> <date>    
##  1 1000526 2014-09-20
##  2 1000723 2020-07-03
##  3 1000723 2020-07-12
##  4 1000792 2017-07-12
##  5 1001231 2020-05-05
##  6 1001355 2003-11-25
##  7 1001511 2020-08-28
##  8 1001870 2015-06-03
##  9 1001870 2015-07-02
## 10 1002013 2021-03-03
## # … with 23,261 more rows
…
